\beamer@endinputifotherversion {3.33pt}
\beamer@sectionintoc {1}{Introduction}{3}{0}{1}
\beamer@sectionintoc {2}{Algorithm}{5}{0}{2}
\beamer@sectionintoc {3}{Implementation}{10}{0}{3}
\beamer@sectionintoc {4}{Performance}{13}{0}{4}
\beamer@sectionintoc {5}{Conclusion}{15}{0}{5}
